rust_hdl_8_bit_Adder/sims/VCD_adder.vcd
$timescale 1 ps $end
$scope module uut $end
$var wire 8 ! sig_a $end
$var wire 8 " sig_b $end
$var wire 8 # sig_sum $end
$var wire 1 $ clock $end
$scope module my_reg $end
$var wire 8 % d $end
$var wire 8 & q $end
$var wire 1 ' clock $end
$upscope $end
$upscope $end
$enddefinitions $end
$dumpvars
b11001101 !
b11001001 "
b00000000 #
0$
b10010110 %
b00000000 &
0'
$end
#5000
b10010110 #
1$
b10010110 &
1'
#5000
#10000
0$
0'
#10000
b11010011 !
b10111000 "
b10001011 %
#15000
b10001011 #
1$
b10001011 &
1'
#15000
#20000
0$
0'
#20000
b11011100 !
b00110110 "
b00010010 %
#25000
b00010010 #
1$
b00010010 &
1'
#25000
#30000
0$
0'
#30000
b00010100 !
b01010110 "
b01101010 %
#35000
b01101010 #
1$
b01101010 &
1'
#35000
#40000
0$
0'
#40000
b11010111 !
b10011101 "
b01110100 %
#45000
b01110100 #
1$
b01110100 &
1'
#45000
#50000
0$
0'
#50000
b01010111 !
b11111110 "
b01010101 %
#55000
b01010101 #
1$
b01010101 &
1'
#55000
#60000
0$
0'
#60000
b10100110 !
b10101101 "
b01010011 %
#65000
b01010011 #
1$
b01010011 &
1'
#65000
#70000
0$
0'
#70000
b11010010 !
b01010100 "
b00100110 %
#75000
b00100110 #
1$
b00100110 &
1'
#75000
#80000
0$
0'
#80000
b00111000 !
b11001111 "
b00000111 %
#85000
b00000111 #
1$
b00000111 &
1'
#85000
#90000
0$
0'
#90000
b00111001 !
b11010110 "
b00001111 %
#95000
b00001111 #
1$
b00001111 &
1'
#95000
#100000
0$
0'
#100000
b00111011 !
b01111001 "
b10110100 %
#105000
b10110100 #
1$
b10110100 &
1'
#105000
#110000
0$
0'
#110000
b01101010 !
b11101101 "
b01010111 %
#115000
b01010111 #
1$
b01010111 &
1'
#115000
#120000
0$
0'
#120000
b10011101 !
b10110001 "
b01001110 %
#125000
b01001110 #
1$
b01001110 &
1'
#125000
#130000
0$
0'
#130000
b00101010 !
b00100010 "
b01001100 %
#135000
b01001100 #
1$
b01001100 &
1'
#135000
#140000
0$
0'
#140000
b11011001 !
b10110011 "
b10001100 %
#145000
b10001100 #
1$
b10001100 &
1'
#145000
#150000
0$
0'
#150000
b10000100 !
b11111101 "
b10000001 %
#155000
b10000001 #
1$
b10000001 &
1'
#155000
#160000
0$
0'
#160000
b11001011 !
b11100110 "
b10110001 %
#165000
b10110001 #
1$
b10110001 &
1'
#165000
#170000
0$
0'
#170000
b01100001 !
b10000010 "
b11100011 %
#175000
b11100011 #
1$
b11100011 &
1'
#175000
#180000
0$
0'
#180000
b00010010 !
b11011110 "
b11110000 %
#185000
b11110000 #
1$
b11110000 &
1'
#185000
#190000
0$
0'
#190000
b00101110 !
b00000000 "
b00101110 %
#195000
b00101110 #
1$
b00101110 &
1'
#195000
#200000
0$
0'
#200000
b10110010 !
b01111110 "
b00110000 %
#205000
b00110000 #
1$
b00110000 &
1'
#205000
#210000
0$
0'
#210000
b11001101 !
b10100001 "
b01101110 %
#215000
b01101110 #
1$
b01101110 &
1'
#215000
#220000
0$
0'
#220000
b10000000 !
b10000101 "
b00000101 %
#225000
b00000101 #
1$
b00000101 &
1'
#225000
#230000
0$
0'
#230000
b11001011 !
b00001001 "
b11010100 %
#235000
b11010100 #
1$
b11010100 &
1'
#235000
#240000
0$
0'
#240000
b01111111 !
b01111110 "
b11111101 %
#245000
b11111101 #
1$
b11111101 &
1'
#245000
#250000
0$
0'
#250000
b01101011 !
b10110110 "
b00100001 %
#255000
b00100001 #
1$
b00100001 &
1'
#255000
#260000
0$
0'
#260000
b00010110 !
b01111111 "
b10010101 %
#265000
b10010101 #
1$
b10010101 &
1'
#265000
#270000
0$
0'
#270000
b01110111 !
b01000101 "
b10111100 %
#275000
b10111100 #
1$
b10111100 &
1'
#275000
#280000
0$
0'
#280000
b10101000 !
b01101011 "
b00010011 %
#285000
b00010011 #
1$
b00010011 &
1'
#285000
#290000
0$
0'
#290000
b11100011 !
b11101111 "
b11010010 %
#295000
b11010010 #
1$
b11010010 &
1'
#295000
#300000
0$
0'
#300000
b00010101 !
b00011101 "
b00110010 %
#305000
b00110010 #
1$
b00110010 &
1'
#305000
#310000
0$
0'
#310000
b00100101 !
b01100111 "
b10001100 %
#315000
b10001100 #
1$
b10001100 &
1'
#315000
#320000
0$
0'
#320000
b00101001 !
b10001110 "
b10110111 %
#325000
b10110111 #
1$
b10110111 &
1'
#325000
#330000
0$
0'
#330000
b01101101 !
b00000001 "
b01101110 %
#335000
b01101110 #
1$
b01101110 &
1'
#335000
#340000
0$
0'
#340000
b00010011 !
b11010111 "
b11101010 %
#345000
b11101010 #
1$
b11101010 &
1'
#345000
#350000
0$
0'
#350000
b01010011 !
b11000111 "
b00011010 %
#355000
b00011010 #
1$
b00011010 &
1'
#355000
#360000
0$
0'
#360000
b11100000 !
b11100111 "
b11000111 %
#365000
b11000111 #
1$
b11000111 &
1'
#365000
#370000
0$
0'
#370000
b01111111 !
b10000000 "
b11111111 %
#375000
b11111111 #
1$
b11111111 &
1'
#375000
#380000
0$
0'
#380000
b01100101 !
b11110011 "
b01011000 %
#385000
b01011000 #
1$
b01011000 &
1'
#385000
#390000
0$
0'
#390000
b00111010 !
b11100110 "
b00100000 %
#395000
b00100000 #
1$
b00100000 &
1'
#395000
#400000
0$
0'
#400000
b01010001 !
b00001101 "
b01011110 %
#405000
b01011110 #
1$
b01011110 &
1'
#405000
#410000
0$
0'
#410000
b01111111 !
b01011010 "
b11011001 %
#415000
b11011001 #
1$
b11011001 &
1'
#415000
#420000
0$
0'
#420000
b01010000 !
b10000101 "
b11010101 %
#425000
b11010101 #
1$
b11010101 &
1'
#425000
#430000
0$
0'
#430000
b01101100 !
b11010000 "
b00111100 %
#435000
b00111100 #
1$
b00111100 &
1'
#435000
#440000
0$
0'
#440000
b10011010 !
b01111111 "
b00011001 %
#445000
b00011001 #
1$
b00011001 &
1'
#445000
#450000
0$
0'
#450000
b01100001 !
b10001010 "
b11101011 %
#455000
b11101011 #
1$
b11101011 &
1'
#455000
#460000
0$
0'
#460000
b00101011 !
b10001101 "
b10111000 %
#465000
b10111000 #
1$
b10111000 &
1'
#465000
#470000
0$
0'
#470000
b01110001 !
b01000111 "
#475000
1$
1'
#475000
#480000
0$
0'
#480000
b00001101 !
b10011101 "
b10101010 %
#485000
b10101010 #
1$
b10101010 &
1'
#485000
#490000
0$
0'
#490000
b10001100 !
b11110101 "
b10000001 %
#495000
b10000001 #
1$
b10000001 &
1'
#495000
#500000
0$
0'
#500000
b11110100 !
b00111111 "
b00110011 %
#505000
b00110011 #
1$
b00110011 &
1'
#505000
#510000
0$
0'
#510000
b11010001 !
b00010110 "
b11100111 %
#515000
b11100111 #
1$
b11100111 &
1'
#515000
#520000
0$
0'
#520000
b11001010 !
b11011011 "
b10100101 %
#525000
b10100101 #
1$
b10100101 &
1'
#525000
#530000
0$
0'
#530000
b10111001 !
b01001000 "
b00000001 %
#535000
b00000001 #
1$
b00000001 &
1'
#535000
#540000
0$
0'
#540000
b10100110 !
b01101110 "
b00010100 %
#545000
b00010100 #
1$
b00010100 &
1'
#545000
#550000
0$
0'
#550000
b10011010 !
b01010101 "
b11101111 %
#555000
b11101111 #
1$
b11101111 &
1'
#555000
#560000
0$
0'
#560000
b10100101 !
b01111010 "
b00011111 %
#565000
b00011111 #
1$
b00011111 &
1'
#565000
#570000
0$
0'
#570000
b01100010 !
b10000000 "
b11100010 %
#575000
b11100010 #
1$
b11100010 &
1'
#575000
#580000
0$
0'
#580000
b11111001 !
b00101011 "
b00100100 %
#585000
b00100100 #
1$
b00100100 &
1'
#585000
#590000
0$
0'
#590000
b10101110 !
b11100100 "
b10010010 %
#595000
b10010010 #
1$
b10010010 &
1'
#595000
#600000
0$
0'
#600000
b11010011 !
b10101110 "
b10000001 %
#605000
b10000001 #
1$
b10000001 &
1'
#605000
#610000
0$
0'
#610000
b11011110 !
b11101100 "
b11001010 %
#615000
b11001010 #
1$
b11001010 &
1'
#615000
#620000
0$
0'
#620000
b01010111 !
b11100010 "
b00111001 %
#625000
b00111001 #
1$
b00111001 &
1'
#625000
#630000
0$
0'
#630000
b10001011 !
b10011010 "
b00100101 %
#635000
b00100101 #
1$
b00100101 &
1'
#635000
#640000
0$
0'
#640000
b10001100 !
b01011100 "
b11101000 %
#645000
b11101000 #
1$
b11101000 &
1'
#645000
#650000
0$
0'
#650000
b00111111 !
b00011111 "
b01011110 %
#655000
b01011110 #
1$
b01011110 &
1'
#655000
#660000
0$
0'
#660000
b11111010 !
b11010011 "
b11001101 %
#665000
b11001101 #
1$
b11001101 &
1'
#665000
#670000
0$
0'
#670000
b11100000 !
b11100001 "
b11000001 %
#675000
b11000001 #
1$
b11000001 &
1'
#675000
#680000
0$
0'
#680000
b11111001 !
b11110011 "
b11101100 %
#685000
b11101100 #
1$
b11101100 &
1'
#685000
#690000
0$
0'
#690000
b00011000 !
b10000100 "
b10011100 %
#695000
b10011100 #
1$
b10011100 &
1'
#695000
#700000
0$
0'
#700000
b01001101 !
b00001101 "
b01011010 %
#705000
b01011010 #
1$
b01011010 &
1'
#705000
#710000
0$
0'
#710000
b11010101 !
b10101110 "
b10000011 %
#715000
b10000011 #
1$
b10000011 &
1'
#715000
#720000
0$
0'
#720000
b01011010 !
b01100001 "
b10111011 %
#725000
b10111011 #
1$
b10111011 &
1'
#725000
#730000
0$
0'
#730000
b10010000 !
b00100011 "
b10110011 %
#735000
b10110011 #
1$
b10110011 &
1'
#735000
#740000
0$
0'
#740000
b11000111 !
b11011101 "
b10100100 %
#745000
b10100100 #
1$
b10100100 &
1'
#745000
#750000
0$
0'
#750000
b01101100 !
b10101010 "
b00010110 %
#755000
b00010110 #
1$
b00010110 &
1'
#755000
#760000
0$
0'
#760000
b00001110 !
b11111100 "
b00001010 %
#765000
b00001010 #
1$
b00001010 &
1'
#765000
#770000
0$
0'
#770000
b01001110 !
b01111001 "
b11000111 %
#775000
b11000111 #
1$
b11000111 &
1'
#775000
#780000
0$
0'
#780000
b11011011 !
b01001111 "
b00101010 %
#785000
b00101010 #
1$
b00101010 &
1'
#785000
#790000
0$
0'
#790000
b10001001 !
b10010000 "
b00011001 %
#795000
b00011001 #
1$
b00011001 &
1'
#795000
#800000
0$
0'
#800000
b00010010 !
b10001100 "
b10011110 %
#805000
b10011110 #
1$
b10011110 &
1'
#805000
#810000
0$
0'
#810000
b01100100 !
b00110110 "
b10011010 %
#815000
b10011010 #
1$
b10011010 &
1'
#815000
#820000
0$
0'
#820000
b01110001 !
b01101110 "
b11011111 %
#825000
b11011111 #
1$
b11011111 &
1'
#825000
#830000
0$
0'
#830000
b10100001 !
b11110001 "
b10010010 %
#835000
b10010010 #
1$
b10010010 &
1'
#835000
#840000
0$
0'
#840000
b00110111 !
b01010110 "
b10001101 %
#845000
b10001101 #
1$
b10001101 &
1'
#845000
#850000
0$
0'
#850000
b01100001 !
b10100011 "
b00000100 %
#855000
b00000100 #
1$
b00000100 &
1'
#855000
#860000
0$
0'
#860000
b00111001 !
b00000000 "
b00111001 %
#865000
b00111001 #
1$
b00111001 &
1'
#865000
#870000
0$
0'
#870000
b10010000 !
b00011011 "
b10101011 %
#875000
b10101011 #
1$
b10101011 &
1'
#875000
#880000
0$
0'
#880000
b00111110 !
b10001100 "
b11001010 %
#885000
b11001010 #
1$
b11001010 &
1'
#885000
#890000
0$
0'
#890000
b01111111 !
b01000001 "
b11000000 %
#895000
b11000000 #
1$
b11000000 &
1'
#895000
#900000
0$
0'
#900000
b00101011 !
b00010110 "
b01000001 %
#905000
b01000001 #
1$
b01000001 &
1'
#905000
#910000
0$
0'
#910000
b10011010 !
b11100001 "
b01111011 %
#915000
b01111011 #
1$
b01111011 &
1'
#915000
#920000
0$
0'
#920000
b11111000 !
b11000000 "
b10111000 %
#925000
b10111000 #
1$
b10111000 &
1'
#925000
#930000
0$
0'
#930000
b11000111 !
b01011001 "
b00100000 %
#935000
b00100000 #
1$
b00100000 &
1'
#935000
#940000
0$
0'
#940000
b01100111 !
b10011100 "
b00000011 %
#945000
b00000011 #
1$
b00000011 &
1'
#945000
#950000
0$
0'
#950000
b11100000 !
b10000101 "
b01100101 %
#955000
b01100101 #
1$
b01100101 &
1'
#955000
#960000
0$
0'
#960000
b11001011 !
b11011111 "
b10101010 %
#965000
b10101010 #
1$
b10101010 &
1'
#965000
#970000
0$
0'
#970000
b10110110 !
b01100001 "
b00010111 %
#975000
b00010111 #
1$
b00010111 &
1'
#975000
#980000
0$
0'
#980000
b01101111 !
b01100110 "
b11010101 %
#985000
b11010101 #
1$
b11010101 &
1'
#985000
#990000
0$
0'
#990000
b11000010 !
b10110010 "
b01110100 %
#995000
b01110100 #
1$
b01110100 &
1'
#995000
#1000000
0$
0'
#1000000
b11111011 !
b01110111 "
b01110010 %
#1005000
b01110010 #
1$
b01110010 &
1'
#1005000
#1010000
0$
0'
#1010000
b00001010 !
b10011100 "
b10100110 %
#1015000
b10100110 #
1$
b10100110 &
1'
#1015000
#1020000
0$
0'
#1020000
b00100110 !
b10000001 "
b10100111 %
#1025000
b10100111 #
1$
b10100111 &
1'
#1025000
#1030000
0$
0'
#1030000
b00010011 !
b00010101 "
b00101000 %
#1035000
b00101000 #
1$
b00101000 &
1'
#1035000
#1040000
0$
0'
#1040000
b10010000 !
b10100011 "
b00110011 %
#1045000
b00110011 #
1$
b00110011 &
1'
#1045000
#1050000
0$
0'
#1050000
b01011010 !
b00101101 "
b10000111 %
#1055000
b10000111 #
1$
b10000111 &
1'
#1055000
#1060000
0$
0'
#1060000
b10110010 !
b10011011 "
b01001101 %
#1065000
b01001101 #
1$
b01001101 &
1'
#1065000
#1070000
0$
0'
#1070000
b01001011 !
b00110111 "
b10000010 %
#1075000
b10000010 #
1$
b10000010 &
1'
#1075000
#1080000
0$
0'
#1080000
b00001101 !
b11100000 "
b11101101 %
#1085000
b11101101 #
1$
b11101101 &
1'
#1085000
#1090000
0$
0'
#1090000
b10110101 !
b00100010 "
b11010111 %
#1095000
b11010111 #
1$
b11010111 &
1'
#1095000
#1100000
0$
0'
#1100000
b01110100 !
b11100010 "
b01010110 %
#1105000
b01010110 #
1$
b01010110 &
1'
#1105000
#1110000
0$
0'
#1110000
b11011001 !
b10110010 "
b10001011 %
#1115000
b10001011 #
1$
b10001011 &
1'
#1115000
#1120000
0$
0'
#1120000
b01000110 !
b11101110 "
b00110100 %
#1125000
b00110100 #
1$
b00110100 &
1'
#1125000
#1130000
0$
0'
#1130000
b10000101 !
b00001101 "
b10010010 %
#1135000
b10010010 #
1$
b10010010 &
1'
#1135000
#1140000
0$
0'
#1140000
b01000111 !
b11011111 "
b00100110 %
#1145000
b00100110 #
1$
b00100110 &
1'
#1145000
#1150000
0$
0'
#1150000
b11000010 !
b11111011 "
b10111101 %
#1155000
b10111101 #
1$
b10111101 &
1'
#1155000
#1160000
0$
0'
#1160000
b11101100 !
b01101010 "
b01010110 %
#1165000
b01010110 #
1$
b01010110 &
1'
#1165000
#1170000
0$
0'
#1170000
b10001001 !
b10000111 "
b00010000 %
#1175000
b00010000 #
1$
b00010000 &
1'
#1175000
#1180000
0$
0'
#1180000
b11111110 !
b11100010 "
b11100000 %
#1185000
b11100000 #
1$
b11100000 &
1'
#1185000
#1190000
0$
0'
#1190000
b00001001 !
b00000110 "
b00001111 %
#1195000
b00001111 #
1$
b00001111 &
1'
#1195000
#1200000
0$
0'
#1200000
b01000001 !
b11100001 "
b00100010 %
#1205000
b00100010 #
1$
b00100010 &
1'
#1205000
#1210000
0$
0'
#1210000
b01111001 !
b11100000 "
b01011001 %
#1215000
b01011001 #
1$
b01011001 &
1'
#1215000
#1220000
0$
0'
#1220000
b01010100 !
b00100011 "
b01110111 %
#1225000
b01110111 #
1$
b01110111 &
1'
#1225000
#1230000
0$
0'
#1230000
b11000100 !
b10010011 "
b01010111 %
#1235000
b01010111 #
1$
b01010111 &
1'
#1235000
#1240000
0$
0'
#1240000
b11000110 !
b01101101 "
b00110011 %
#1245000
b00110011 #
1$
b00110011 &
1'
#1245000
#1250000
0$
0'
#1250000
b10100100 !
b11000100 "
b01101000 %
#1255000
b01101000 #
1$
b01101000 &
1'
#1255000
#1260000
0$
0'
#1260000
b11001111 !
b00111001 "
b00001000 %
#1265000
b00001000 #
1$
b00001000 &
1'
#1265000
#1270000
0$
0'
#1270000
b11110001 !
b11010101 "
b11000110 %
#1275000
b11000110 #
1$
b11000110 &
1'
#1275000
#1280000
0$
0'
#1280000
b00101000 !
b11000100 "
b11101100 %
#1285000
b11101100 #
1$
b11101100 &
1'
#1285000
#1290000
0$
0'
#1290000
b00110011 !
b10001110 "
b11000001 %
#1295000
b11000001 #
1$
b11000001 &
1'
#1295000
#1300000
0$
0'
#1300000
b00110000 !
b11000100 "
b11110100 %
#1305000
b11110100 #
1$
b11110100 &
1'
#1305000
#1310000
0$
0'
#1310000
b01100000 !
b00101110 "
b10001110 %
#1315000
b10001110 #
1$
b10001110 &
1'
#1315000
#1320000
0$
0'
#1320000
b11110011 !
b00010110 "
b00001001 %
#1325000
b00001001 #
1$
b00001001 &
1'
#1325000
#1330000
0$
0'
#1330000
b01001011 !
b10011000 "
b11100011 %
#1335000
b11100011 #
1$
b11100011 &
1'
#1335000
#1340000
0$
0'
#1340000
b00010011 !
b00000000 "
b00010011 %
#1345000
b00010011 #
1$
b00010011 &
1'
#1345000
#1350000
0$
0'
#1350000
b11100011 !
b00111000 "
b00011011 %
#1355000
b00011011 #
1$
b00011011 &
1'
#1355000
#1360000
0$
0'
#1360000
b10011100 !
b01010001 "
b11101101 %
#1365000
b11101101 #
1$
b11101101 &
1'
#1365000
#1370000
0$
0'
#1370000
b00110110 !
b11011010 "
b00010000 %
#1375000
b00010000 #
1$
b00010000 &
1'
#1375000
#1380000
0$
0'
#1380000
b01001111 !
b01011011 "
b10101010 %
#1385000
b10101010 #
1$
b10101010 &
1'
#1385000
#1390000
0$
0'
#1390000
b11111001 !
b11010101 "
b11001110 %
#1395000
b11001110 #
1$
b11001110 &
1'
#1395000
#1400000
0$
0'
#1400000
b11001100 !
b11101100 "
b10111000 %
#1405000
b10111000 #
1$
b10111000 &
1'
#1405000
#1410000
0$
0'
#1410000
b01110000 !
b00100001 "
b10010001 %
#1415000
b10010001 #
1$
b10010001 &
1'
#1415000
#1420000
0$
0'
#1420000
b01110110 !
b11111100 "
b01110010 %
#1425000
b01110010 #
1$
b01110010 &
1'
#1425000
#1430000
0$
0'
#1430000
b11100011 !
b01010101 "
b00111000 %
#1435000
b00111000 #
1$
b00111000 &
1'
#1435000
#1440000
0$
0'
#1440000
b11001001 !
b00100111 "
b11110000 %
#1445000
b11110000 #
1$
b11110000 &
1'
#1445000
#1450000
0$
0'
#1450000
b01001101 !
b10111111 "
b00001100 %
#1455000
b00001100 #
1$
b00001100 &
1'
#1455000
#1460000
0$
0'
#1460000
b11001000 !
b00100000 "
b11101000 %
#1465000
b11101000 #
1$
b11101000 &
1'
#1465000
#1470000
0$
0'
#1470000
b00010100 !
b01100000 "
b01110100 %
#1475000
b01110100 #
1$
b01110100 &
1'
#1475000
#1480000
0$
0'
#1480000
b11010001 !
b10110101 "
b10000110 %
#1485000
b10000110 #
1$
b10000110 &
1'
#1485000
#1490000
0$
0'
#1490000
b01101000 !
b11111100 "
b01100100 %
#1495000
b01100100 #
1$
b01100100 &
1'
#1495000
#1500000
0$
0'
#1500000
b11101000 !
b00001111 "
b11110111 %
#1505000
b11110111 #
1$
b11110111 &
1'
#1505000
#1510000
0$
0'
#1510000
b11000101 !
b10001110 "
b01010011 %
#1515000
b01010011 #
1$
b01010011 &
1'
#1515000
#1520000
0$
0'
#1520000
b10101010 !
b00011110 "
b11001000 %
#1525000
b11001000 #
1$
b11001000 &
1'
#1525000
#1530000
0$
0'
#1530000
b11000011 !
b00110110 "
b11111001 %
#1535000
b11111001 #
1$
b11111001 &
1'
#1535000
#1540000
0$
0'
#1540000
b10111101 !
b00000101 "
b11000010 %
#1545000
b11000010 #
1$
b11000010 &
1'
#1545000
#1550000
0$
0'
#1550000
b11010110 !
b10011011 "
b01110001 %
#1555000
b01110001 #
1$
b01110001 &
1'
#1555000
#1560000
0$
0'
#1560000
b00110110 !
b11100000 "
b00010110 %
#1565000
b00010110 #
1$
b00010110 &
1'
#1565000
#1570000
0$
0'
#1570000
b11001111 !
b01011010 "
b00101001 %
#1575000
b00101001 #
1$
b00101001 &
1'
#1575000
#1580000
0$
0'
#1580000
b11001101 !
b11110000 "
b10111101 %
#1585000
b10111101 #
1$
b10111101 &
1'
#1585000
#1590000
0$
0'
#1590000
b10000000 !
b11011100 "
b01011100 %
#1595000
b01011100 #
1$
b01011100 &
1'
#1595000
#1600000
0$
0'
#1600000
b01000010 !
b00101001 "
b01101011 %
#1605000
b01101011 #
1$
b01101011 &
1'
#1605000
#1610000
0$
0'
#1610000
b00111001 !
b11001101 "
b00000110 %
#1615000
b00000110 #
1$
b00000110 &
1'
#1615000
#1620000
0$
0'
#1620000
b00010101 !
b00011000 "
b00101101 %
#1625000
b00101101 #
1$
b00101101 &
1'
#1625000
#1630000
0$
0'
#1630000
b00010111 !
b01011010 "
b01110001 %
#1635000
b01110001 #
1$
b01110001 &
1'
#1635000
#1640000
0$
0'
#1640000
b11000010 !
b11000010 "
b10000100 %
#1645000
b10000100 #
1$
b10000100 &
1'
#1645000
#1650000
0$
0'
#1650000
b11101010 !
b10101100 "
b10010110 %
#1655000
b10010110 #
1$
b10010110 &
1'
#1655000
#1660000
0$
0'
#1660000
b01110010 !
b11111000 "
b01101010 %
#1665000
b01101010 #
1$
b01101010 &
1'
#1665000
#1670000
0$
0'
#1670000
b11111000 !
b01001111 "
b01000111 %
#1675000
b01000111 #
1$
b01000111 &
1'
#1675000
#1680000
0$
0'
#1680000
b10000101 !
b11001101 "
b01010010 %
#1685000
b01010010 #
1$
b01010010 &
1'
#1685000
#1690000
0$
0'
#1690000
b01010110 !
b01010010 "
b10101000 %
#1695000
b10101000 #
1$
b10101000 &
1'
#1695000
#1700000
0$
0'
#1700000
b01011100 !
b10000101 "
b11100001 %
#1705000
b11100001 #
1$
b11100001 &
1'
#1705000
#1710000
0$
0'
#1710000
b01010001 !
b10110010 "
b00000011 %
#1715000
b00000011 #
1$
b00000011 &
1'
#1715000
#1720000
0$
0'
#1720000
b10000100 !
b00000111 "
b10001011 %
#1725000
b10001011 #
1$
b10001011 &
1'
#1725000
#1730000
0$
0'
#1730000
b00000111 !
b10100010 "
b10101001 %
#1735000
b10101001 #
1$
b10101001 &
1'
#1735000
#1740000
0$
0'
#1740000
b00001111 !
b11110101 "
b00000100 %
#1745000
b00000100 #
1$
b00000100 &
1'
#1745000
#1750000
0$
0'
#1750000
b01010111 !
b11011000 "
b00101111 %
#1755000
b00101111 #
1$
b00101111 &
1'
#1755000
#1760000
0$
0'
#1760000
b11011011 !
b00111011 "
b00010110 %
#1765000
b00010110 #
1$
b00010110 &
1'
#1765000
#1770000
0$
0'
#1770000
b10100110 !
b00101100 "
b11010010 %
#1775000
b11010010 #
1$
b11010010 &
1'
#1775000
#1780000
0$
0'
#1780000
b10001010 !
b10000110 "
b00010000 %
#1785000
b00010000 #
1$
b00010000 &
1'
#1785000
#1790000
0$
0'
#1790000
b11001001 !
b10101111 "
b01111000 %
#1795000
b01111000 #
1$
b01111000 &
1'
#1795000
#1800000
0$
0'
#1800000
b00110011 !
b01110011 "
b10100110 %
#1805000
b10100110 #
1$
b10100110 &
1'
#1805000
#1810000
0$
0'
#1810000
b10001100 !
b11110111 "
b10000011 %
#1815000
b10000011 #
1$
b10000011 &
1'
#1815000
#1820000
0$
0'
#1820000
b11101110 !
b01000001 "
b00101111 %
#1825000
b00101111 #
1$
b00101111 &
1'
#1825000
#1830000
0$
0'
#1830000
b00111000 !
b00110011 "
b01101011 %
#1835000
b01101011 #
1$
b01101011 &
1'
#1835000
#1840000
0$
0'
#1840000
b00101101 !
b00001111 "
b00111100 %
#1845000
b00111100 #
1$
b00111100 &
1'
#1845000
#1850000
0$
0'
#1850000
b00110010 !
b01110011 "
b10100101 %
#1855000
b10100101 #
1$
b10100101 &
1'
#1855000
#1860000
0$
0'
#1860000
b00110011 !
b00111101 "
b01110000 %
#1865000
b01110000 #
1$
b01110000 &
1'
#1865000
#1870000
0$
0'
#1870000
b01101001 !
b11110100 "
b01011101 %
#1875000
b01011101 #
1$
b01011101 &
1'
#1875000
#1880000
0$
0'
#1880000
b01100011 !
b10011000 "
b11111011 %
#1885000
b11111011 #
1$
b11111011 &
1'
#1885000
#1890000
0$
0'
#1890000
b01101010 !
b01011001 "
b11000011 %
#1895000
b11000011 #
1$
b11000011 &
1'
#1895000
#1900000
0$
0'
#1900000
b11110100 !
b10110111 "
b10101011 %
#1905000
b10101011 #
1$
b10101011 &
1'
#1905000
#1910000
0$
0'
#1910000
b01010111 !
b01100000 "
b10110111 %
#1915000
b10110111 #
1$
b10110111 &
1'
#1915000
#1920000
0$
0'
#1920000
b00001101 "
b01100100 %
#1925000
b01100100 #
1$
b01100100 &
1'
#1925000
#1930000
0$
0'
#1930000
b01110010 !
b01000110 "
b10111000 %
#1935000
b10111000 #
1$
b10111000 &
1'
#1935000
#1940000
0$
0'
#1940000
b10000011 !
b01110110 "
b11111001 %
#1945000
b11111001 #
1$
b11111001 &
1'
#1945000
#1950000
0$
0'
#1950000
b11001111 !
b10110000 "
b01111111 %
#1955000
b01111111 #
1$
b01111111 &
1'
#1955000
#1960000
0$
0'
#1960000
b11000110 !
b10001101 "
b01010011 %
#1965000
b01010011 #
1$
b01010011 &
1'
#1965000
#1970000
0$
0'
#1970000
b11110101 !
b01000011 "
b00111000 %
#1975000
b00111000 #
1$
b00111000 &
1'
#1975000
#1980000
0$
0'
#1980000
b10010101 !
b11011010 "
b01101111 %
#1985000
b01101111 #
1$
b01101111 &
1'
#1985000
#1990000
0$
0'
#1990000
b01011000 !
b01011001 "
b10110001 %
#1995000
b10110001 #
1$
b10110001 &
1'
#1995000
#2000000
0$
0'
#2000000
b10111111 !
b10000011 "
b01000010 %
#2005000
b01000010 #
1$
b01000010 &
1'
#2005000
#2010000
0$
0'
#2010000
b00000000 !
b11111001 "
b11111001 %
#2015000
b11111001 #
1$
b11111001 &
1'
#2015000
#2020000
0$
0'
#2020000
b01100011 !
b00110100 "
b10010111 %
#2025000
b10010111 #
1$
b10010111 &
1'
#2025000
#2030000
0$
0'
#2030000
b10001100 !
b01101010 "
b11110110 %
#2035000
b11110110 #
1$
b11110110 &
1'
#2035000
#2040000
0$
0'
#2040000
b00100011 !
b00110011 "
b01010110 %
#2045000
b01010110 #
1$
b01010110 &
1'
#2045000
#2050000
0$
0'
#2050000
b01100110 !
b01111011 "
b11100001 %
#2055000
b11100001 #
1$
b11100001 &
1'
#2055000
#2060000
0$
0'
#2060000
b11010001 !
b10001011 "
b01011100 %
#2065000
b01011100 #
1$
b01011100 &
1'
#2065000
#2070000
0$
0'
#2070000
b10101001 !
b10010110 "
b00111111 %
#2075000
b00111111 #
1$
b00111111 &
1'
#2075000
#2080000
0$
0'
#2080000
b00010001 !
b11110111 "
b00001000 %
#2085000
b00001000 #
1$
b00001000 &
1'
#2085000
#2090000
0$
0'
#2090000
b00011110 !
b11100001 "
b11111111 %
#2095000
b11111111 #
1$
b11111111 &
1'
#2095000
#2100000
0$
0'
#2100000
b11001100 !
b00011100 "
b11101000 %
#2105000
b11101000 #
1$
b11101000 &
1'
#2105000
#2110000
0$
0'
#2110000
b00011100 !
b11110100 "
b00010000 %
#2115000
b00010000 #
1$
b00010000 &
1'
#2115000
#2120000
0$
0'
#2120000
b11010100 !
b00100011 "
b11110111 %
#2125000
b11110111 #
1$
b11110111 &
1'
#2125000
#2130000
0$
0'
#2130000
b11110101 !
b10000000 "
b01110101 %
#2135000
b01110101 #
1$
b01110101 &
1'
#2135000
#2140000
0$
0'
#2140000
b01011100 !
b00110011 "
b10001111 %
#2145000
b10001111 #
1$
b10001111 &
1'
#2145000
#2150000
0$
0'
#2150000
b10010111 !
b00010111 "
b10101110 %
#2155000
b10101110 #
1$
b10101110 &
1'
#2155000
#2160000
0$
0'
#2160000
b11111000 !
b10000111 "
b01111111 %
#2165000
b01111111 #
1$
b01111111 &
1'
#2165000
#2170000
0$
0'
#2170000
b10101010 !
b11010001 "
b01111011 %
#2175000
b01111011 #
1$
b01111011 &
1'
#2175000
#2180000
0$
0'
#2180000
b00001000 !
b00001111 "
b00010111 %
#2185000
b00010111 #
1$
b00010111 &
1'
#2185000
#2190000
0$
0'
#2190000
b10110110 !
b11000001 "
b01110111 %
#2195000
b01110111 #
1$
b01110111 &
1'
#2195000
#2200000
0$
0'
#2200000
b01111101 !
b01111011 "
b11111000 %
#2205000
b11111000 #
1$
b11111000 &
1'
#2205000
#2210000
0$
0'
#2210000
b00000011 !
b01011011 "
b01011110 %
#2215000
b01011110 #
1$
b01011110 &
1'
#2215000
#2220000
0$
0'
#2220000
b01111110 !
b11111011 "
b01111001 %
#2225000
b01111001 #
1$
b01111001 &
1'
#2225000
#2230000
0$
0'
#2230000
b00000100 !
b10000101 "
b10001001 %
#2235000
b10001001 #
1$
b10001001 &
1'
#2235000
#2240000
0$
0'
#2240000
b10111000 !
b00110001 "
b11101001 %
#2245000
b11101001 #
1$
b11101001 &
1'
#2245000
#2250000
0$
0'
#2250000
b11000111 !
b10110111 "
b01111110 %
#2255000
b01111110 #
1$
b01111110 &
1'
#2255000
#2260000
0$
0'
#2260000
b00011110 !
b00010100 "
b00110010 %
#2265000
b00110010 #
1$
b00110010 &
1'
#2265000
#2270000
0$
0'
